MODULE CalibData
	PERS tooldata pen:=[TRUE,[[0,0,139],[1,0,0,0]],[0.5,[0,0,20],[1,0,0,0],0,0,0]];
	TASK PERS wobjdata Workobject_1:=[FALSE,TRUE,"",[[450,125,116],[0,1,0,0]],[[50,50,-15],[1,0,0,0]]];
	TASK PERS wobjdata Workobject_1_2:=[FALSE,TRUE,"",[[450,125,116],[0,1,0,0]],[[50,50,-15],[1,0,0,0]]];
ENDMODULE